<mxfile host="www.draw.io" modified="2019-11-28T08:36:40.558Z" agent="Mozilla/5.0 (Windows NT 10.0; Win64; x64; rv:70.0) Gecko/20100101 Firefox/70.0" etag="3xK0R2mJwWyQH21uYnuY" version="12.3.3" type="gitlab" pages="1">
  <diagram id="uzwSHNkWBLPZU8OJ0Y0L" name="Page-1">
    <mxGraphModel dx="1841" dy="683" grid="1" gridSize="10" guides="1" tooltips="1" connect="1" arrows="1" fold="1" page="1" pageScale="1" pageWidth="827" pageHeight="1169" math="0" shadow="0">
      <root>
        <mxCell id="0"/>
        <mxCell id="1" parent="0"/>
        <mxCell id="IERsEW5MIYu3Y4hOEwrY-28" value="" style="rounded=0;whiteSpace=wrap;html=1;" parent="1" vertex="1">
          <mxGeometry x="270" y="160" width="140" height="110" as="geometry"/>
        </mxCell>
        <mxCell id="IERsEW5MIYu3Y4hOEwrY-6" style="edgeStyle=none;rounded=0;orthogonalLoop=1;jettySize=auto;html=1;entryX=0.976;entryY=0.45;entryDx=0;entryDy=0;entryPerimeter=0;endArrow=none;endFill=0;exitX=0;exitY=0.5;exitDx=0;exitDy=0;" parent="1" source="4meVOyZRzaa8Njvt6lgJ-4" target="IERsEW5MIYu3Y4hOEwrY-5" edge="1">
          <mxGeometry relative="1" as="geometry"/>
        </mxCell>
        <mxCell id="IERsEW5MIYu3Y4hOEwrY-8" style="edgeStyle=none;rounded=0;orthogonalLoop=1;jettySize=auto;html=1;exitX=0;exitY=0.5;exitDx=0;exitDy=0;entryX=1;entryY=0.5;entryDx=0;entryDy=0;endArrow=none;endFill=0;" parent="1" source="4meVOyZRzaa8Njvt6lgJ-4" target="IERsEW5MIYu3Y4hOEwrY-7" edge="1">
          <mxGeometry relative="1" as="geometry"/>
        </mxCell>
        <mxCell id="4meVOyZRzaa8Njvt6lgJ-4" value="User" style="strokeWidth=2;whiteSpace=wrap;html=1;align=center;fontSize=14;" parent="1" vertex="1">
          <mxGeometry x="150" y="120" width="100" height="40" as="geometry"/>
        </mxCell>
        <mxCell id="4meVOyZRzaa8Njvt6lgJ-18" style="rounded=0;orthogonalLoop=1;jettySize=auto;html=1;exitX=1;exitY=0.5;exitDx=0;exitDy=0;entryX=0;entryY=0.5;entryDx=0;entryDy=0;endArrow=none;endFill=0;" parent="1" source="4meVOyZRzaa8Njvt6lgJ-16" target="4meVOyZRzaa8Njvt6lgJ-4" edge="1">
          <mxGeometry relative="1" as="geometry"/>
        </mxCell>
        <mxCell id="4meVOyZRzaa8Njvt6lgJ-16" value="User ID" style="ellipse;whiteSpace=wrap;html=1;fontStyle=4" parent="1" vertex="1">
          <mxGeometry x="-0.5" y="40" width="120" height="20" as="geometry"/>
        </mxCell>
        <mxCell id="4meVOyZRzaa8Njvt6lgJ-19" style="edgeStyle=none;rounded=0;orthogonalLoop=1;jettySize=auto;html=1;exitX=1;exitY=0.5;exitDx=0;exitDy=0;entryX=0;entryY=0.5;entryDx=0;entryDy=0;endArrow=none;endFill=0;" parent="1" source="4meVOyZRzaa8Njvt6lgJ-17" target="4meVOyZRzaa8Njvt6lgJ-4" edge="1">
          <mxGeometry relative="1" as="geometry"/>
        </mxCell>
        <mxCell id="4meVOyZRzaa8Njvt6lgJ-17" value="Username" style="ellipse;whiteSpace=wrap;html=1;" parent="1" vertex="1">
          <mxGeometry y="70" width="120" height="20" as="geometry"/>
        </mxCell>
        <mxCell id="IERsEW5MIYu3Y4hOEwrY-5" value="EMail" style="ellipse;whiteSpace=wrap;html=1;" parent="1" vertex="1">
          <mxGeometry x="-0.5" y="100" width="120" height="20" as="geometry"/>
        </mxCell>
        <mxCell id="IERsEW5MIYu3Y4hOEwrY-7" value="interested in sports" style="ellipse;whiteSpace=wrap;html=1;" parent="1" vertex="1">
          <mxGeometry y="160" width="120" height="20" as="geometry"/>
        </mxCell>
        <mxCell id="IERsEW5MIYu3Y4hOEwrY-16" style="edgeStyle=none;rounded=0;orthogonalLoop=1;jettySize=auto;html=1;exitX=1;exitY=0.5;exitDx=0;exitDy=0;endArrow=none;endFill=0;" parent="1" source="IERsEW5MIYu3Y4hOEwrY-15" target="4meVOyZRzaa8Njvt6lgJ-4" edge="1">
          <mxGeometry relative="1" as="geometry"/>
        </mxCell>
        <mxCell id="IERsEW5MIYu3Y4hOEwrY-15" value="Password" style="ellipse;whiteSpace=wrap;html=1;" parent="1" vertex="1">
          <mxGeometry x="-0.5" y="130" width="120" height="20" as="geometry"/>
        </mxCell>
        <mxCell id="IERsEW5MIYu3Y4hOEwrY-23" style="edgeStyle=none;rounded=0;orthogonalLoop=1;jettySize=auto;html=1;exitX=1;exitY=0.5;exitDx=0;exitDy=0;endArrow=none;endFill=0;" parent="1" source="IERsEW5MIYu3Y4hOEwrY-22" edge="1">
          <mxGeometry relative="1" as="geometry">
            <mxPoint x="150" y="140" as="targetPoint"/>
          </mxGeometry>
        </mxCell>
        <mxCell id="IERsEW5MIYu3Y4hOEwrY-22" value="interested in teams" style="ellipse;whiteSpace=wrap;html=1;" parent="1" vertex="1">
          <mxGeometry x="-0.5" y="190" width="120" height="20" as="geometry"/>
        </mxCell>
        <mxCell id="IERsEW5MIYu3Y4hOEwrY-25" style="edgeStyle=none;rounded=0;orthogonalLoop=1;jettySize=auto;html=1;exitX=1;exitY=0.5;exitDx=0;exitDy=0;endArrow=none;endFill=0;" parent="1" source="IERsEW5MIYu3Y4hOEwrY-24" edge="1">
          <mxGeometry relative="1" as="geometry">
            <mxPoint x="150" y="140" as="targetPoint"/>
          </mxGeometry>
        </mxCell>
        <mxCell id="IERsEW5MIYu3Y4hOEwrY-24" value="admin for team / league" style="ellipse;whiteSpace=wrap;html=1;fillColor=#dae8fc;strokeColor=#6c8ebf;" parent="1" vertex="1">
          <mxGeometry y="220" width="120" height="40" as="geometry"/>
        </mxCell>
        <mxCell id="IERsEW5MIYu3Y4hOEwrY-26" value="optional / later" style="ellipse;whiteSpace=wrap;html=1;fillColor=#dae8fc;strokeColor=#6c8ebf;" parent="1" vertex="1">
          <mxGeometry x="280" y="220" width="120" height="40" as="geometry"/>
        </mxCell>
        <mxCell id="IERsEW5MIYu3Y4hOEwrY-27" value="required" style="ellipse;whiteSpace=wrap;html=1;" parent="1" vertex="1">
          <mxGeometry x="280" y="170" width="120" height="40" as="geometry"/>
        </mxCell>
      </root>
    </mxGraphModel>
  </diagram>
</mxfile>
