<mxfile host="www.draw.io" modified="2019-12-03T18:24:21.151Z" agent="Mozilla/5.0 (Windows NT 10.0; WOW64; rv:68.0) Gecko/20100101 Firefox/68.0" etag="73GAMkKmnCv-BVUCgd3s" version="12.3.6" type="gitlab" pages="1">
  <diagram id="sG5PGdfSi4wiSSKproIg" name="Page-1">
    <mxGraphModel dx="853" dy="449" grid="1" gridSize="10" guides="1" tooltips="1" connect="1" arrows="1" fold="1" page="1" pageScale="1" pageWidth="827" pageHeight="1169" math="0" shadow="0">
      <root>
        <mxCell id="0"/>
        <mxCell id="1" parent="0"/>
        <mxCell id="yw7YOE8sAr-JMlGTvJAM-4" value="" style="shape=cube;whiteSpace=wrap;html=1;boundedLbl=1;backgroundOutline=1;darkOpacity=0.05;darkOpacity2=0.1;size=18;" vertex="1" parent="1">
          <mxGeometry x="30" y="90" width="690" height="910" as="geometry"/>
        </mxCell>
        <mxCell id="yw7YOE8sAr-JMlGTvJAM-5" value="&amp;lt;&amp;lt;device&amp;gt;&amp;gt; mysticrunes.net Root Server" style="text;html=1;strokeColor=none;fillColor=none;align=center;verticalAlign=middle;whiteSpace=wrap;rounded=0;" vertex="1" parent="1">
          <mxGeometry x="70" y="90" width="240" height="20" as="geometry"/>
        </mxCell>
        <mxCell id="yw7YOE8sAr-JMlGTvJAM-9" value="" style="shape=cube;whiteSpace=wrap;html=1;boundedLbl=1;backgroundOutline=1;darkOpacity=0.05;darkOpacity2=0.1;size=16;" vertex="1" parent="1">
          <mxGeometry x="60" y="120" width="640" height="870" as="geometry"/>
        </mxCell>
        <mxCell id="yw7YOE8sAr-JMlGTvJAM-7" value="&amp;lt;&amp;lt;Docker environment&amp;gt;&amp;gt; Docker" style="text;html=1;strokeColor=none;fillColor=none;align=center;verticalAlign=middle;whiteSpace=wrap;rounded=0;" vertex="1" parent="1">
          <mxGeometry x="65" y="120" width="210" height="20" as="geometry"/>
        </mxCell>
        <mxCell id="yw7YOE8sAr-JMlGTvJAM-24" value="" style="group" vertex="1" connectable="0" parent="1">
          <mxGeometry x="85" y="150" width="275" height="150" as="geometry"/>
        </mxCell>
        <mxCell id="yw7YOE8sAr-JMlGTvJAM-10" value="" style="shape=cube;whiteSpace=wrap;html=1;boundedLbl=1;backgroundOutline=1;darkOpacity=0.05;darkOpacity2=0.1;size=15;" vertex="1" parent="yw7YOE8sAr-JMlGTvJAM-24">
          <mxGeometry x="5" width="270" height="150" as="geometry"/>
        </mxCell>
        <mxCell id="yw7YOE8sAr-JMlGTvJAM-13" value="&amp;lt;&amp;lt;Docker container&amp;gt;&amp;gt; sapi.mysticrunes.net" style="text;html=1;strokeColor=none;fillColor=none;align=center;verticalAlign=middle;whiteSpace=wrap;rounded=0;" vertex="1" parent="yw7YOE8sAr-JMlGTvJAM-24">
          <mxGeometry width="260" height="20" as="geometry"/>
        </mxCell>
        <mxCell id="yw7YOE8sAr-JMlGTvJAM-14" value="&lt;div&gt;spring-boot.jar&lt;/div&gt;&lt;div&gt;&amp;lt;&amp;lt;webserver&amp;gt;&amp;gt; Tomcat&lt;br&gt;&lt;/div&gt;" style="rounded=0;whiteSpace=wrap;html=1;" vertex="1" parent="yw7YOE8sAr-JMlGTvJAM-24">
          <mxGeometry x="35" y="30" width="220" height="100" as="geometry"/>
        </mxCell>
        <mxCell id="yw7YOE8sAr-JMlGTvJAM-17" value="&lt;pre style=&quot;font-family: &amp;#34;consolas&amp;#34;&quot;&gt;&lt;span style=&quot;background-color: transparent&quot;&gt;openjdk:11-slim&lt;/span&gt;&lt;/pre&gt;" style="text;html=1;strokeColor=none;fillColor=none;align=center;verticalAlign=middle;whiteSpace=wrap;rounded=0;" vertex="1" parent="yw7YOE8sAr-JMlGTvJAM-24">
          <mxGeometry x="25" y="30" width="150" height="20" as="geometry"/>
        </mxCell>
        <mxCell id="yw7YOE8sAr-JMlGTvJAM-30" value="Master" style="text;html=1;strokeColor=none;fillColor=none;align=center;verticalAlign=middle;whiteSpace=wrap;rounded=0;" vertex="1" parent="yw7YOE8sAr-JMlGTvJAM-24">
          <mxGeometry x="45" y="50" width="40" height="20" as="geometry"/>
        </mxCell>
        <mxCell id="yw7YOE8sAr-JMlGTvJAM-25" value="" style="group" vertex="1" connectable="0" parent="1">
          <mxGeometry x="85" y="320" width="275" height="150" as="geometry"/>
        </mxCell>
        <mxCell id="yw7YOE8sAr-JMlGTvJAM-26" value="" style="shape=cube;whiteSpace=wrap;html=1;boundedLbl=1;backgroundOutline=1;darkOpacity=0.05;darkOpacity2=0.1;size=15;" vertex="1" parent="yw7YOE8sAr-JMlGTvJAM-25">
          <mxGeometry x="5" width="270" height="150" as="geometry"/>
        </mxCell>
        <mxCell id="yw7YOE8sAr-JMlGTvJAM-27" value="&amp;lt;&amp;lt;Docker container&amp;gt;&amp;gt; sapi-dev.mysticrunes.net" style="text;html=1;strokeColor=none;fillColor=none;align=center;verticalAlign=middle;whiteSpace=wrap;rounded=0;" vertex="1" parent="yw7YOE8sAr-JMlGTvJAM-25">
          <mxGeometry width="270" height="20" as="geometry"/>
        </mxCell>
        <mxCell id="yw7YOE8sAr-JMlGTvJAM-28" value="&lt;div&gt;spring-boot.jar&lt;/div&gt;&lt;div&gt;&amp;lt;&amp;lt;webserver&amp;gt;&amp;gt; Tomcat&lt;br&gt;&lt;/div&gt;" style="rounded=0;whiteSpace=wrap;html=1;" vertex="1" parent="yw7YOE8sAr-JMlGTvJAM-25">
          <mxGeometry x="35" y="30" width="220" height="100" as="geometry"/>
        </mxCell>
        <mxCell id="yw7YOE8sAr-JMlGTvJAM-29" value="&lt;pre style=&quot;font-family: &amp;#34;consolas&amp;#34;&quot;&gt;&lt;span style=&quot;background-color: transparent&quot;&gt;openjdk:11-slim&lt;/span&gt;&lt;/pre&gt;" style="text;html=1;strokeColor=none;fillColor=none;align=center;verticalAlign=middle;whiteSpace=wrap;rounded=0;" vertex="1" parent="yw7YOE8sAr-JMlGTvJAM-25">
          <mxGeometry x="25" y="30" width="150" height="20" as="geometry"/>
        </mxCell>
        <mxCell id="yw7YOE8sAr-JMlGTvJAM-31" value="Develop" style="text;html=1;strokeColor=none;fillColor=none;align=center;verticalAlign=middle;whiteSpace=wrap;rounded=0;" vertex="1" parent="yw7YOE8sAr-JMlGTvJAM-25">
          <mxGeometry x="50" y="50" width="40" height="20" as="geometry"/>
        </mxCell>
        <mxCell id="yw7YOE8sAr-JMlGTvJAM-32" value="" style="group" vertex="1" connectable="0" parent="1">
          <mxGeometry x="90" y="480" width="275" height="150" as="geometry"/>
        </mxCell>
        <mxCell id="yw7YOE8sAr-JMlGTvJAM-33" value="" style="shape=cube;whiteSpace=wrap;html=1;boundedLbl=1;backgroundOutline=1;darkOpacity=0.05;darkOpacity2=0.1;size=15;" vertex="1" parent="yw7YOE8sAr-JMlGTvJAM-32">
          <mxGeometry x="5" width="270" height="150" as="geometry"/>
        </mxCell>
        <mxCell id="yw7YOE8sAr-JMlGTvJAM-34" value="&amp;lt;&amp;lt;Docker container&amp;gt;&amp;gt; sweb.mysticrunes.net" style="text;html=1;strokeColor=none;fillColor=none;align=center;verticalAlign=middle;whiteSpace=wrap;rounded=0;" vertex="1" parent="yw7YOE8sAr-JMlGTvJAM-32">
          <mxGeometry width="260" height="20" as="geometry"/>
        </mxCell>
        <mxCell id="yw7YOE8sAr-JMlGTvJAM-35" value="&lt;div&gt;app.js&lt;/div&gt;&lt;div&gt;&amp;lt;&amp;lt;webserver&amp;gt;&amp;gt; Node.js&lt;/div&gt;" style="rounded=0;whiteSpace=wrap;html=1;" vertex="1" parent="yw7YOE8sAr-JMlGTvJAM-32">
          <mxGeometry x="35" y="30" width="220" height="100" as="geometry"/>
        </mxCell>
        <mxCell id="yw7YOE8sAr-JMlGTvJAM-36" value="&lt;pre style=&quot;font-family: &amp;#34;consolas&amp;#34;&quot;&gt;&lt;span style=&quot;background-color: transparent&quot;&gt;node:lts-alpine&lt;/span&gt;&lt;/pre&gt;" style="text;html=1;strokeColor=none;fillColor=none;align=center;verticalAlign=middle;whiteSpace=wrap;rounded=0;" vertex="1" parent="yw7YOE8sAr-JMlGTvJAM-32">
          <mxGeometry x="25" y="30" width="150" height="20" as="geometry"/>
        </mxCell>
        <mxCell id="yw7YOE8sAr-JMlGTvJAM-37" value="Master" style="text;html=1;strokeColor=none;fillColor=none;align=center;verticalAlign=middle;whiteSpace=wrap;rounded=0;" vertex="1" parent="yw7YOE8sAr-JMlGTvJAM-32">
          <mxGeometry x="45" y="50" width="40" height="20" as="geometry"/>
        </mxCell>
        <mxCell id="yw7YOE8sAr-JMlGTvJAM-39" value="" style="group" vertex="1" connectable="0" parent="1">
          <mxGeometry x="90" y="640" width="275" height="150" as="geometry"/>
        </mxCell>
        <mxCell id="yw7YOE8sAr-JMlGTvJAM-40" value="" style="shape=cube;whiteSpace=wrap;html=1;boundedLbl=1;backgroundOutline=1;darkOpacity=0.05;darkOpacity2=0.1;size=15;" vertex="1" parent="yw7YOE8sAr-JMlGTvJAM-39">
          <mxGeometry x="5" width="270" height="150" as="geometry"/>
        </mxCell>
        <mxCell id="yw7YOE8sAr-JMlGTvJAM-41" value="&amp;lt;&amp;lt;Docker container&amp;gt;&amp;gt; sweb-dev.mysticrunes.net" style="text;html=1;strokeColor=none;fillColor=none;align=center;verticalAlign=middle;whiteSpace=wrap;rounded=0;" vertex="1" parent="yw7YOE8sAr-JMlGTvJAM-39">
          <mxGeometry width="260" height="20" as="geometry"/>
        </mxCell>
        <mxCell id="yw7YOE8sAr-JMlGTvJAM-42" value="&lt;div&gt;app.js&lt;/div&gt;&lt;div&gt;&amp;lt;&amp;lt;webserver&amp;gt;&amp;gt; Node.js&lt;br&gt;&lt;/div&gt;" style="rounded=0;whiteSpace=wrap;html=1;" vertex="1" parent="yw7YOE8sAr-JMlGTvJAM-39">
          <mxGeometry x="35" y="30" width="220" height="100" as="geometry"/>
        </mxCell>
        <mxCell id="yw7YOE8sAr-JMlGTvJAM-43" value="&lt;pre style=&quot;font-family: &amp;#34;consolas&amp;#34;&quot;&gt;&lt;span style=&quot;background-color: transparent&quot;&gt;node:lts-alpine&lt;/span&gt;&lt;/pre&gt;" style="text;html=1;strokeColor=none;fillColor=none;align=center;verticalAlign=middle;whiteSpace=wrap;rounded=0;" vertex="1" parent="yw7YOE8sAr-JMlGTvJAM-39">
          <mxGeometry x="25" y="30" width="150" height="20" as="geometry"/>
        </mxCell>
        <mxCell id="yw7YOE8sAr-JMlGTvJAM-44" value="Develop" style="text;html=1;strokeColor=none;fillColor=none;align=center;verticalAlign=middle;whiteSpace=wrap;rounded=0;" vertex="1" parent="yw7YOE8sAr-JMlGTvJAM-39">
          <mxGeometry x="45" y="50" width="40" height="20" as="geometry"/>
        </mxCell>
        <mxCell id="yw7YOE8sAr-JMlGTvJAM-45" value="" style="group" vertex="1" connectable="0" parent="1">
          <mxGeometry x="90" y="810" width="275" height="150" as="geometry"/>
        </mxCell>
        <mxCell id="yw7YOE8sAr-JMlGTvJAM-46" value="" style="shape=cube;whiteSpace=wrap;html=1;boundedLbl=1;backgroundOutline=1;darkOpacity=0.05;darkOpacity2=0.1;size=15;" vertex="1" parent="yw7YOE8sAr-JMlGTvJAM-45">
          <mxGeometry x="5" width="270" height="150" as="geometry"/>
        </mxCell>
        <mxCell id="yw7YOE8sAr-JMlGTvJAM-47" value="&amp;lt;&amp;lt;Docker container&amp;gt;&amp;gt;" style="text;html=1;strokeColor=none;fillColor=none;align=center;verticalAlign=middle;whiteSpace=wrap;rounded=0;" vertex="1" parent="yw7YOE8sAr-JMlGTvJAM-45">
          <mxGeometry x="-45" width="260" height="20" as="geometry"/>
        </mxCell>
        <mxCell id="yw7YOE8sAr-JMlGTvJAM-48" value="&lt;div&gt;&amp;lt;&amp;lt;database&amp;gt;&amp;gt; postgreSQL&lt;br&gt;&lt;/div&gt;" style="rounded=0;whiteSpace=wrap;html=1;" vertex="1" parent="yw7YOE8sAr-JMlGTvJAM-45">
          <mxGeometry x="35" y="30" width="220" height="100" as="geometry"/>
        </mxCell>
        <mxCell id="yw7YOE8sAr-JMlGTvJAM-49" value="postgres:latest" style="text;html=1;strokeColor=none;fillColor=none;align=center;verticalAlign=middle;whiteSpace=wrap;rounded=0;" vertex="1" parent="yw7YOE8sAr-JMlGTvJAM-45">
          <mxGeometry x="25" y="30" width="150" height="20" as="geometry"/>
        </mxCell>
        <mxCell id="yw7YOE8sAr-JMlGTvJAM-52" style="edgeStyle=orthogonalEdgeStyle;rounded=0;orthogonalLoop=1;jettySize=auto;html=1;exitX=0;exitY=0;exitDx=270;exitDy=82.5;exitPerimeter=0;entryX=0;entryY=0;entryDx=270;entryDy=82.5;entryPerimeter=0;" edge="1" parent="1" source="yw7YOE8sAr-JMlGTvJAM-10" target="yw7YOE8sAr-JMlGTvJAM-46">
          <mxGeometry relative="1" as="geometry"/>
        </mxCell>
        <mxCell id="yw7YOE8sAr-JMlGTvJAM-51" style="edgeStyle=orthogonalEdgeStyle;rounded=0;orthogonalLoop=1;jettySize=auto;html=1;exitX=0;exitY=0;exitDx=270;exitDy=82.5;exitPerimeter=0;entryX=0;entryY=0;entryDx=270;entryDy=82.5;entryPerimeter=0;" edge="1" parent="1" source="yw7YOE8sAr-JMlGTvJAM-26" target="yw7YOE8sAr-JMlGTvJAM-46">
          <mxGeometry relative="1" as="geometry"/>
        </mxCell>
        <mxCell id="yw7YOE8sAr-JMlGTvJAM-53" value="" style="group" vertex="1" connectable="0" parent="1">
          <mxGeometry x="413" y="434" width="275" height="150" as="geometry"/>
        </mxCell>
        <mxCell id="yw7YOE8sAr-JMlGTvJAM-54" value="" style="shape=cube;whiteSpace=wrap;html=1;boundedLbl=1;backgroundOutline=1;darkOpacity=0.05;darkOpacity2=0.1;size=15;" vertex="1" parent="yw7YOE8sAr-JMlGTvJAM-53">
          <mxGeometry x="5" width="270" height="150" as="geometry"/>
        </mxCell>
        <mxCell id="yw7YOE8sAr-JMlGTvJAM-55" value="&amp;lt;&amp;lt;Docker container&amp;gt;&amp;gt;" style="text;html=1;strokeColor=none;fillColor=none;align=center;verticalAlign=middle;whiteSpace=wrap;rounded=0;" vertex="1" parent="yw7YOE8sAr-JMlGTvJAM-53">
          <mxGeometry width="260" height="20" as="geometry"/>
        </mxCell>
        <mxCell id="yw7YOE8sAr-JMlGTvJAM-56" value="&lt;div&gt;&amp;lt;&amp;lt;proxy&amp;gt;&amp;gt; Traefik&lt;br&gt;&lt;/div&gt;" style="rounded=0;whiteSpace=wrap;html=1;" vertex="1" parent="yw7YOE8sAr-JMlGTvJAM-53">
          <mxGeometry x="35" y="30" width="220" height="100" as="geometry"/>
        </mxCell>
        <mxCell id="yw7YOE8sAr-JMlGTvJAM-57" value="traefik:latest" style="text;html=1;strokeColor=none;fillColor=none;align=center;verticalAlign=middle;whiteSpace=wrap;rounded=0;" vertex="1" parent="yw7YOE8sAr-JMlGTvJAM-53">
          <mxGeometry x="25" y="30" width="150" height="20" as="geometry"/>
        </mxCell>
        <mxCell id="yw7YOE8sAr-JMlGTvJAM-69" style="edgeStyle=orthogonalEdgeStyle;rounded=0;orthogonalLoop=1;jettySize=auto;html=1;exitX=1;exitY=0.5;exitDx=0;exitDy=0;entryX=0;entryY=0.5;entryDx=0;entryDy=0;" edge="1" parent="1" source="yw7YOE8sAr-JMlGTvJAM-42" target="yw7YOE8sAr-JMlGTvJAM-56">
          <mxGeometry relative="1" as="geometry"/>
        </mxCell>
        <mxCell id="yw7YOE8sAr-JMlGTvJAM-70" style="edgeStyle=orthogonalEdgeStyle;rounded=0;orthogonalLoop=1;jettySize=auto;html=1;exitX=1;exitY=0.5;exitDx=0;exitDy=0;entryX=0;entryY=0.5;entryDx=0;entryDy=0;" edge="1" parent="1" source="yw7YOE8sAr-JMlGTvJAM-35" target="yw7YOE8sAr-JMlGTvJAM-56">
          <mxGeometry relative="1" as="geometry"/>
        </mxCell>
        <mxCell id="yw7YOE8sAr-JMlGTvJAM-71" style="edgeStyle=orthogonalEdgeStyle;rounded=0;orthogonalLoop=1;jettySize=auto;html=1;exitX=1;exitY=0.5;exitDx=0;exitDy=0;entryX=0;entryY=0.5;entryDx=0;entryDy=0;" edge="1" parent="1" source="yw7YOE8sAr-JMlGTvJAM-28" target="yw7YOE8sAr-JMlGTvJAM-56">
          <mxGeometry relative="1" as="geometry"/>
        </mxCell>
        <mxCell id="yw7YOE8sAr-JMlGTvJAM-72" style="edgeStyle=orthogonalEdgeStyle;rounded=0;orthogonalLoop=1;jettySize=auto;html=1;exitX=1;exitY=0.5;exitDx=0;exitDy=0;entryX=0;entryY=0.5;entryDx=0;entryDy=0;" edge="1" parent="1" source="yw7YOE8sAr-JMlGTvJAM-14" target="yw7YOE8sAr-JMlGTvJAM-56">
          <mxGeometry relative="1" as="geometry"/>
        </mxCell>
        <mxCell id="yw7YOE8sAr-JMlGTvJAM-74" value="" style="group" vertex="1" connectable="0" parent="1">
          <mxGeometry x="800" y="434.5" width="300" height="170" as="geometry"/>
        </mxCell>
        <mxCell id="yw7YOE8sAr-JMlGTvJAM-75" value="" style="shape=cube;whiteSpace=wrap;html=1;boundedLbl=1;backgroundOutline=1;darkOpacity=0.05;darkOpacity2=0.1;size=15;" vertex="1" parent="yw7YOE8sAr-JMlGTvJAM-74">
          <mxGeometry x="5" width="295" height="170" as="geometry"/>
        </mxCell>
        <mxCell id="yw7YOE8sAr-JMlGTvJAM-76" value="&amp;lt;&amp;lt;device&amp;gt;&amp;gt; client" style="text;html=1;strokeColor=none;fillColor=none;align=center;verticalAlign=middle;whiteSpace=wrap;rounded=0;" vertex="1" parent="yw7YOE8sAr-JMlGTvJAM-74">
          <mxGeometry width="260" height="20" as="geometry"/>
        </mxCell>
        <mxCell id="yw7YOE8sAr-JMlGTvJAM-79" value="" style="shape=cube;whiteSpace=wrap;html=1;boundedLbl=1;backgroundOutline=1;darkOpacity=0.05;darkOpacity2=0.1;size=17;" vertex="1" parent="yw7YOE8sAr-JMlGTvJAM-74">
          <mxGeometry x="27" y="26" width="263" height="134" as="geometry"/>
        </mxCell>
        <mxCell id="yw7YOE8sAr-JMlGTvJAM-80" value="&amp;lt;&amp;lt;browser&amp;gt;&amp;gt; Chrome/Firefox" style="text;html=1;strokeColor=none;fillColor=none;align=center;verticalAlign=middle;whiteSpace=wrap;rounded=0;" vertex="1" parent="yw7YOE8sAr-JMlGTvJAM-74">
          <mxGeometry x="27" y="26" width="180" height="20" as="geometry"/>
        </mxCell>
        <mxCell id="yw7YOE8sAr-JMlGTvJAM-83" value="Port 443" style="text;html=1;strokeColor=none;fillColor=none;align=center;verticalAlign=middle;whiteSpace=wrap;rounded=0;" vertex="1" parent="1">
          <mxGeometry x="720" y="535" width="50" height="20" as="geometry"/>
        </mxCell>
        <mxCell id="yw7YOE8sAr-JMlGTvJAM-82" style="edgeStyle=orthogonalEdgeStyle;rounded=0;orthogonalLoop=1;jettySize=auto;html=1;exitX=0;exitY=0;exitDx=0;exitDy=58.5;exitPerimeter=0;entryX=0;entryY=0;entryDx=690;entryDy=464;entryPerimeter=0;" edge="1" parent="1" source="yw7YOE8sAr-JMlGTvJAM-79" target="yw7YOE8sAr-JMlGTvJAM-4">
          <mxGeometry relative="1" as="geometry"/>
        </mxCell>
      </root>
    </mxGraphModel>
  </diagram>
</mxfile>
