<mxfile host="app.diagrams.net" modified="2020-04-26T09:01:11.156Z" agent="5.0 (Windows)" etag="tL3CJiGDhdhvDjNBlYMX" version="13.0.1" type="gitlab">
  <diagram id="lsdLSE0XMkHmVdZR06Uz" name="Page-1">
    <mxGraphModel dx="1184" dy="791" grid="1" gridSize="10" guides="1" tooltips="1" connect="1" arrows="1" fold="1" page="1" pageScale="1" pageWidth="827" pageHeight="1169" math="0" shadow="0">
      <root>
        <mxCell id="0" />
        <mxCell id="1" parent="0" />
        <mxCell id="OdEvTNkggo1oYiVFjXLG-1" value="User actions" style="swimlane;startSize=23;" parent="1" vertex="1">
          <mxGeometry x="40" y="50" width="430" height="590" as="geometry">
            <mxRectangle x="590" y="230" width="90" height="23" as="alternateBounds" />
          </mxGeometry>
        </mxCell>
        <mxCell id="PCj5nBYkp8L_zNCL2CRU-5" value="" style="edgeStyle=orthogonalEdgeStyle;html=1;verticalAlign=bottom;endArrow=open;endSize=8;strokeColor=#ff0000;exitX=0.5;exitY=1;exitDx=0;exitDy=0;entryX=0.5;entryY=0;entryDx=0;entryDy=0;" parent="OdEvTNkggo1oYiVFjXLG-1" source="yvDE_7Mu0AGI3-WKMeTl-11" edge="1">
          <mxGeometry relative="1" as="geometry">
            <mxPoint x="115" y="190" as="targetPoint" />
            <mxPoint x="119.5" y="190" as="sourcePoint" />
          </mxGeometry>
        </mxCell>
        <mxCell id="PCj5nBYkp8L_zNCL2CRU-11" value="Click on a article" style="rounded=1;whiteSpace=wrap;html=1;arcSize=40;fontColor=#000000;fillColor=#ffffc0;strokeColor=#ff0000;" parent="OdEvTNkggo1oYiVFjXLG-1" vertex="1">
          <mxGeometry x="55" y="430" width="120" height="40" as="geometry" />
        </mxCell>
        <mxCell id="PCj5nBYkp8L_zNCL2CRU-18" value="" style="edgeStyle=orthogonalEdgeStyle;html=1;verticalAlign=bottom;endArrow=open;endSize=8;strokeColor=#ff0000;exitX=0;exitY=0.5;exitDx=0;exitDy=0;entryX=0;entryY=0.5;entryDx=0;entryDy=0;" parent="OdEvTNkggo1oYiVFjXLG-1" source="yvDE_7Mu0AGI3-WKMeTl-11" target="PCj5nBYkp8L_zNCL2CRU-11" edge="1">
          <mxGeometry relative="1" as="geometry">
            <mxPoint x="119.5" y="560" as="targetPoint" />
            <mxPoint x="119.5" y="500" as="sourcePoint" />
            <Array as="points">
              <mxPoint x="20" y="130" />
              <mxPoint x="20" y="450" />
            </Array>
          </mxGeometry>
        </mxCell>
        <mxCell id="yvDE_7Mu0AGI3-WKMeTl-11" value="browse all" style="rhombus;whiteSpace=wrap;html=1;fillColor=#ffffc0;strokeColor=#ff0000;" parent="OdEvTNkggo1oYiVFjXLG-1" vertex="1">
          <mxGeometry x="75" y="110" width="80" height="40" as="geometry" />
        </mxCell>
        <mxCell id="yvDE_7Mu0AGI3-WKMeTl-45" value="yes" style="text;html=1;align=center;verticalAlign=middle;resizable=0;points=[];autosize=1;" parent="OdEvTNkggo1oYiVFjXLG-1" vertex="1">
          <mxGeometry x="40" y="110" width="30" height="20" as="geometry" />
        </mxCell>
        <mxCell id="yvDE_7Mu0AGI3-WKMeTl-46" value="no" style="text;html=1;align=center;verticalAlign=middle;resizable=0;points=[];autosize=1;" parent="OdEvTNkggo1oYiVFjXLG-1" vertex="1">
          <mxGeometry x="120" y="150" width="30" height="20" as="geometry" />
        </mxCell>
        <mxCell id="yVDIPg5J7QZCTG5VcmV2-2" value="browse a sport" style="rhombus;whiteSpace=wrap;html=1;fillColor=#ffffc0;strokeColor=#ff0000;" parent="OdEvTNkggo1oYiVFjXLG-1" vertex="1">
          <mxGeometry x="75" y="190" width="80" height="40" as="geometry" />
        </mxCell>
        <mxCell id="yVDIPg5J7QZCTG5VcmV2-3" value="yes" style="edgeStyle=orthogonalEdgeStyle;html=1;align=left;verticalAlign=bottom;endArrow=open;endSize=8;strokeColor=#ff0000;" parent="OdEvTNkggo1oYiVFjXLG-1" source="yVDIPg5J7QZCTG5VcmV2-2" edge="1">
          <mxGeometry x="-1" relative="1" as="geometry">
            <mxPoint x="200" y="210" as="targetPoint" />
          </mxGeometry>
        </mxCell>
        <mxCell id="yVDIPg5J7QZCTG5VcmV2-4" value="no" style="edgeStyle=orthogonalEdgeStyle;html=1;align=left;verticalAlign=top;endArrow=open;endSize=8;strokeColor=#ff0000;entryX=0;entryY=0.5;entryDx=0;entryDy=0;" parent="OdEvTNkggo1oYiVFjXLG-1" source="yVDIPg5J7QZCTG5VcmV2-2" target="yVDIPg5J7QZCTG5VcmV2-12" edge="1">
          <mxGeometry x="-1" relative="1" as="geometry">
            <mxPoint x="115" y="280" as="targetPoint" />
            <Array as="points">
              <mxPoint x="115" y="300" />
            </Array>
          </mxGeometry>
        </mxCell>
        <mxCell id="yVDIPg5J7QZCTG5VcmV2-8" value="Select a sport" style="rounded=1;whiteSpace=wrap;html=1;arcSize=40;fontColor=#000000;fillColor=#ffffc0;strokeColor=#ff0000;" parent="OdEvTNkggo1oYiVFjXLG-1" vertex="1">
          <mxGeometry x="200" y="190" width="120" height="40" as="geometry" />
        </mxCell>
        <mxCell id="yVDIPg5J7QZCTG5VcmV2-12" value="Search a team" style="rounded=1;whiteSpace=wrap;html=1;arcSize=40;fontColor=#000000;fillColor=#ffffc0;strokeColor=#ff0000;" parent="OdEvTNkggo1oYiVFjXLG-1" vertex="1">
          <mxGeometry x="200" y="280" width="120" height="40" as="geometry" />
        </mxCell>
        <mxCell id="yVDIPg5J7QZCTG5VcmV2-16" value="" style="ellipse;html=1;shape=startState;fillColor=#000000;strokeColor=#ff0000;" parent="OdEvTNkggo1oYiVFjXLG-1" vertex="1">
          <mxGeometry x="100" y="50" width="30" height="30" as="geometry" />
        </mxCell>
        <mxCell id="yVDIPg5J7QZCTG5VcmV2-17" value="" style="edgeStyle=orthogonalEdgeStyle;html=1;verticalAlign=bottom;endArrow=open;endSize=8;strokeColor=#ff0000;" parent="OdEvTNkggo1oYiVFjXLG-1" source="yVDIPg5J7QZCTG5VcmV2-16" edge="1">
          <mxGeometry relative="1" as="geometry">
            <mxPoint x="115" y="110" as="targetPoint" />
          </mxGeometry>
        </mxCell>
        <mxCell id="PCj5nBYkp8L_zNCL2CRU-1" value="Frontend" style="swimlane;startSize=23;" parent="1" vertex="1">
          <mxGeometry x="480" y="50" width="200" height="590" as="geometry">
            <mxRectangle x="370" y="50" width="90" height="23" as="alternateBounds" />
          </mxGeometry>
        </mxCell>
        <mxCell id="yvDE_7Mu0AGI3-WKMeTl-36" style="edgeStyle=orthogonalEdgeStyle;rounded=0;orthogonalLoop=1;jettySize=auto;html=1;exitX=0.5;exitY=1;exitDx=0;exitDy=0;" parent="PCj5nBYkp8L_zNCL2CRU-1" edge="1">
          <mxGeometry relative="1" as="geometry">
            <mxPoint x="100" y="430" as="sourcePoint" />
            <mxPoint x="100" y="430" as="targetPoint" />
          </mxGeometry>
        </mxCell>
        <mxCell id="yvDE_7Mu0AGI3-WKMeTl-38" value="Show blog article" style="rounded=1;whiteSpace=wrap;html=1;arcSize=40;fontColor=#000000;fillColor=#ffffc0;strokeColor=#ff0000;" parent="PCj5nBYkp8L_zNCL2CRU-1" vertex="1">
          <mxGeometry x="40" y="430" width="120" height="40" as="geometry" />
        </mxCell>
        <mxCell id="yvDE_7Mu0AGI3-WKMeTl-47" value="" style="ellipse;html=1;shape=endState;fillColor=#000000;strokeColor=#ff0000;" parent="PCj5nBYkp8L_zNCL2CRU-1" vertex="1">
          <mxGeometry x="85" y="520" width="30" height="30" as="geometry" />
        </mxCell>
        <mxCell id="yvDE_7Mu0AGI3-WKMeTl-39" value="" style="edgeStyle=orthogonalEdgeStyle;html=1;verticalAlign=bottom;endArrow=open;endSize=8;strokeColor=#ff0000;" parent="PCj5nBYkp8L_zNCL2CRU-1" source="yvDE_7Mu0AGI3-WKMeTl-38" target="yvDE_7Mu0AGI3-WKMeTl-47" edge="1">
          <mxGeometry relative="1" as="geometry">
            <mxPoint x="80" y="530" as="targetPoint" />
          </mxGeometry>
        </mxCell>
        <mxCell id="yVDIPg5J7QZCTG5VcmV2-10" value="Show only articles related to the sport" style="rounded=1;whiteSpace=wrap;html=1;arcSize=40;fontColor=#000000;fillColor=#ffffc0;strokeColor=#ff0000;" parent="PCj5nBYkp8L_zNCL2CRU-1" vertex="1">
          <mxGeometry x="40" y="190" width="120" height="40" as="geometry" />
        </mxCell>
        <mxCell id="yVDIPg5J7QZCTG5VcmV2-18" value="Show only articles related to the sport" style="rounded=1;whiteSpace=wrap;html=1;arcSize=40;fontColor=#000000;fillColor=#ffffc0;strokeColor=#ff0000;" parent="PCj5nBYkp8L_zNCL2CRU-1" vertex="1">
          <mxGeometry x="40" y="280" width="120" height="40" as="geometry" />
        </mxCell>
        <mxCell id="yvDE_7Mu0AGI3-WKMeTl-25" value="" style="edgeStyle=orthogonalEdgeStyle;html=1;verticalAlign=bottom;endArrow=open;endSize=8;strokeColor=#ff0000;exitX=1;exitY=0.5;exitDx=0;exitDy=0;" parent="1" source="PCj5nBYkp8L_zNCL2CRU-11" target="yvDE_7Mu0AGI3-WKMeTl-38" edge="1">
          <mxGeometry relative="1" as="geometry">
            <mxPoint x="370" y="440" as="targetPoint" />
          </mxGeometry>
        </mxCell>
        <mxCell id="yVDIPg5J7QZCTG5VcmV2-9" value="" style="edgeStyle=orthogonalEdgeStyle;html=1;verticalAlign=bottom;endArrow=open;endSize=8;strokeColor=#ff0000;entryX=0;entryY=0.5;entryDx=0;entryDy=0;" parent="1" source="yVDIPg5J7QZCTG5VcmV2-8" target="yVDIPg5J7QZCTG5VcmV2-10" edge="1">
          <mxGeometry relative="1" as="geometry">
            <mxPoint x="300" y="340" as="targetPoint" />
          </mxGeometry>
        </mxCell>
        <mxCell id="yVDIPg5J7QZCTG5VcmV2-13" value="" style="edgeStyle=orthogonalEdgeStyle;html=1;verticalAlign=bottom;endArrow=open;endSize=8;strokeColor=#ff0000;entryX=0;entryY=0.5;entryDx=0;entryDy=0;" parent="1" source="yVDIPg5J7QZCTG5VcmV2-12" target="yVDIPg5J7QZCTG5VcmV2-18" edge="1">
          <mxGeometry relative="1" as="geometry">
            <mxPoint x="300" y="430" as="targetPoint" />
          </mxGeometry>
        </mxCell>
        <mxCell id="yVDIPg5J7QZCTG5VcmV2-19" style="edgeStyle=orthogonalEdgeStyle;rounded=1;orthogonalLoop=1;jettySize=auto;html=1;entryX=0.25;entryY=0;entryDx=0;entryDy=0;strokeColor=#FF0000;endArrow=open;endFill=0;endSize=8;" parent="1" source="yVDIPg5J7QZCTG5VcmV2-18" target="PCj5nBYkp8L_zNCL2CRU-11" edge="1">
          <mxGeometry relative="1" as="geometry">
            <Array as="points">
              <mxPoint x="580" y="400" />
              <mxPoint x="125" y="400" />
            </Array>
          </mxGeometry>
        </mxCell>
        <mxCell id="yVDIPg5J7QZCTG5VcmV2-11" value="" style="edgeStyle=orthogonalEdgeStyle;html=1;verticalAlign=bottom;endArrow=open;endSize=8;strokeColor=#ff0000;entryX=0.75;entryY=0;entryDx=0;entryDy=0;" parent="1" source="yVDIPg5J7QZCTG5VcmV2-10" target="PCj5nBYkp8L_zNCL2CRU-11" edge="1">
          <mxGeometry relative="1" as="geometry">
            <mxPoint x="630" y="310" as="targetPoint" />
            <Array as="points">
              <mxPoint x="660" y="260" />
              <mxPoint x="660" y="440" />
              <mxPoint x="185" y="440" />
            </Array>
          </mxGeometry>
        </mxCell>
      </root>
    </mxGraphModel>
  </diagram>
</mxfile>
